// Jest Snapshot v1, https://goo.gl/fbAQLP

exports[`circular yarn.lock, finds a properly 1`] = `
Array [
  Array [
    "b@2.0.0",
    "a@1.0.0",
  ],
]
`;

exports[`circular yarn.lock, finds b properly 1`] = `
Array [
  Array [
    "a@1.0.0",
    "b@2.0.0",
  ],
]
`;
